{
  "firestore": {
    "rules": "firestore.rules",
    "indexes": "firestore.indexes.json"
  },
  "functions": {
    "predeploy": "npm --prefix functions run build"
  },
  "hosting": [
    {
      "target": "admin",
      "public": "dist/apps/admin",
      "ignore": [
        "firebase.json",
        "**/.*",
        "**/node_modules/**"
      ],
      "redirects": [
        {
          "source" : "/",
          "destination" : "/en",
          "type" : 301
        }
      ],
      "rewrites": [
        {
          "source": "**",
          "destination": "/index.html"
        }
      ],
      "headers": [
        {
          "source": "**/*.@(eot|otf|ttf|ttc|woff|font.css)",
          "headers": [
            {
              "key": "Access-Control-Allow-Origin",
              "value": "*"
            }
          ]
        },
        {
          "source": "**/*.@(jpg|jpeg|gif|png)",
          "headers": [
            {
              "key": "Cache-Control",
              "value": "max-age=7200"
            }
          ]
        }
      ]
    },
    {
      "target": "client",
      "public": "dist/apps/client",
      "ignore": [
        "firebase.json",
        "**/.*",
        "**/node_modules/**"
      ],
      "rewrites": [
        {
          "source": "**",
          "destination": "/index.html"
        }
      ],
      "headers": [
        {
          "source": "**/*.@(eot|otf|ttf|ttc|woff|font.css)",
          "headers": [
            {
              "key": "Access-Control-Allow-Origin",
              "value": "*"
            }
          ]
        },
        {
          "source": "**/*.@(jpg|jpeg|gif|png)",
          "headers": [
            {
              "key": "Cache-Control",
              "value": "max-age=7200"
            }
          ]
        }
      ]
    },
    {
      "target": "web",
      "public": "dist/apps/web",
      "ignore": [
        "firebase.json",
        "**/.*",
        "**/node_modules/**"
      ],
      "rewrites": [
        {
          "source": "**",
          "destination": "/index.html"
        }
      ],
      "headers": [
        {
          "source": "**/*.@(eot|otf|ttf|ttc|woff|font.css)",
          "headers": [
            {
              "key": "Access-Control-Allow-Origin",
              "value": "*"
            }
          ]
        },
        {
          "source": "**/*.@(jpg|jpeg|gif|png)",
          "headers": [
            {
              "key": "Cache-Control",
              "value": "max-age=7200"
            }
          ]
        }
      ]
    },
    {
      "target": "admin-documentation",
      "public": "documentation/admin",
      "ignore": [
        "firebase.json",
        "**/.*",
        "**/node_modules/**"
      ],
      "rewrites": [
        {
          "source": "**",
          "destination": "/index.html"
        }
      ]
    },
    {
      "target": "client-documentation",
      "public": "documentation/client",
      "ignore": [
        "firebase.json",
        "**/.*",
        "**/node_modules/**"
      ],
      "rewrites": [
        {
          "source": "**",
          "destination": "/index.html"
        }
      ]
    },
    {
      "target": "web-documentation",
      "public": "documentation/web",
      "ignore": [
        "firebase.json",
        "**/.*",
        "**/node_modules/**"
      ],
      "rewrites": [
        {
          "source": "**",
          "destination": "/index.html"
        }
      ]
    }
  ],
  "storage": {
    "rules": "storage.rules"
  }
}
