{
  "npmScope": "satipasala",
  "implicitDependencies": {
    "angular.json": "*",
    "package.json": "*",
    "tsconfig.json": "*",
    "tslint.json": "*",
    "nx.json": "*"
  },
  "projects": {
    "admin": {
      "tags": []
    },
    "admin-e2e": {
      "tags": []
    },
    "client": {
      "tags": []
    },
    "client-e2e": {
      "tags": []
    },
    "web": {
      "tags": []
    },
    "base": {
      "tags": []
    },
    "model": {
      "tags": []
    },
    "service": {
      "tags": []
    },
    "guards": {
      "tags": []
    },
    "services": {
      "tags": []
    },
    "testing": {
      "tags": []
    }
  }
}
