{
  "questionnaires": {
    "CAMS-R": {
      "name": "Questionnaire",
      "cols": 1,
      "rows": 1,
      "color": "lightblue",
      "questions":[
        {
          "order": 1,
          "type": "radio",
          "name": "1st question",
          "label": "It is easy for me to concentrate on what I am doing",
          "value": "",
          "validators": {
            "type": "validator-types",
            "values": [
              {
                "type": "required"
              }
            ]
          },
          "options": [
            {
              "key": "1",
              "label": "Rarely/Notat all"
            },
            {
              "key": "2",
              "label": "Sometimes"
            },
            {
              "key": "3",
              "label": "Often"
            },
            {
              "key": "4",
              "label": "Almost"
            }
          ],
          "chipList": {
            "type": "chip",
            "stacked": true,
            "values": [
              {
                "name": "Beginner",
                "color": "primary"
              },
              {
                "name": "Activity",
                "color": "warn"
              }
            ]
          }
        },
        {
          "order": 2,
          "type": "radio",
          "name": "2 question",
          "label": "I can tolerate emotional pain.",
          "value": "",
          "validators": {
            "type": "validator-types",
            "values": [
              {
                "type": "required"
              }
            ]
          },
          "options": [
            {
              "key": "1",
              "label": "Rarely/Notat all"
            },
            {
              "key": "2",
              "label": "Sometimes"
            },
            {
              "key": "3",
              "label": "Often"
            },
            {
              "key": "4",
              "label": "Almost"
            }
          ],
          "chipList": {
            "type": "chip",
            "stacked": true,
            "values": [
              {
                "name": "Beginner",
                "color": "primary"
              },
              {
                "name": "Activity",
                "color": "warn"
              }
            ]
          }
        },
        {
          "order": 3,
          "type": "radio",
          "name": "3 question",
          "label": "I can accept things I cannot change.",
          "value": "",
          "validators": {
            "type": "validator-types",
            "values": [
              {
                "type": "required"
              }
            ]
          },
          "options": [
            {
              "key": "1",
              "label": "Rarely/Notat all"
            },
            {
              "key": "2",
              "label": "Sometimes"
            },
            {
              "key": "3",
              "label": "Often"
            },
            {
              "key": "4",
              "label": "Almost"
            }
          ],
          "chipList": {
            "type": "chip",
            "stacked": true,
            "values": [
              {
                "name": "Beginner",
                "color": "primary"
              },
              {
                "name": "Activity",
                "color": "warn"
              }
            ]
          }
        },
        {
          "order": 4,
          "type": "radio",
          "name": "4 question",
          "label": "I can usually describe how I feel at the moment inconsiderable detail.",
          "value": "",
          "validators": {
            "type": "validator-types",
            "values": [
              {
                "type": "required"
              }
            ]
          },
          "options": [
            {
              "key": "1",
              "label": "Rarely/Notat all"
            },
            {
              "key": "2",
              "label": "Sometimes"
            },
            {
              "key": "3",
              "label": "Often"
            },
            {
              "key": "4",
              "label": "Almost"
            }
          ],
          "chipList": {
            "type": "chip",
            "stacked": true,
            "values": [
              {
                "name": "Beginner",
                "color": "primary"
              },
              {
                "name": "Activity",
                "color": "warn"
              }
            ]
          }
        },
        {
          "order": 5,
          "type": "radio",
          "name": "5 question",
          "label": "I am easily distracted.",
          "value": "",
          "validators": {
            "type": "validator-types",
            "values": [
              {
                "type": "required"
              }
            ]
          },
          "options": [
            {
              "key": "1",
              "label": "Rarely/Notat all"
            },
            {
              "key": "2",
              "label": "Sometimes"
            },
            {
              "key": "3",
              "label": "Often"
            },
            {
              "key": "4",
              "label": "Almost"
            }
          ],
          "chipList": {
            "type": "chip",
            "stacked": true,
            "values": [
              {
                "name": "Beginner",
                "color": "primary"
              },
              {
                "name": "Activity",
                "color": "warn"
              }
            ]
          }
        },
        {
          "order": 6,
          "type": "radio",
          "name": "question6",
          "label": "It is easy for me to keep track of my thoughts and feelings.",
          "value": "",
          "validators": {
            "type": "validator-types",
            "values": [
              {
                "type": "required"
              }
            ]
          },
          "options": [
            {
              "key": "1",
              "label": "Rarely/Notat all"
            },
            {
              "key": "2",
              "label": "Sometimes"
            },
            {
              "key": "3",
              "label": "Often"
            },
            {
              "key": "4",
              "label": "Almost"
            }
          ],
          "chipList": {
            "type": "chip",
            "stacked": true,
            "values": [
              {
                "name": "Beginner",
                "color": "primary"
              },
              {
                "name": "Activity",
                "color": "warn"
              }
            ]
          }
        },
        {
          "order": 7,
          "type": "radio",
          "name": "question7",
          "label": "I try to notice my thoughts without judging them.",
          "value": "",
          "validators": {
            "type": "validator-types",
            "values": [
              {
                "type": "required"
              }
            ]
          },
          "options":[
            {
              "key": "1",
              "label": "Rarely/Notat all"
            },
            {
              "key": "2",
              "label": "Sometimes"
            },
            {
              "key": "3",
              "label": "Often"
            },
            {
              "key": "4",
              "label": "Almost"
            }
          ],
          "chipList": {
            "type": "chip",
            "stacked": true,
            "values": [
              {
                "name": "Beginner",
                "color": "primary"
              },
              {
                "name": "Activity",
                "color": "warn"
              }
            ]
          }
        },
        {
          "order": 8,
          "type": "radio",
          "name": "question8",
          "label": "I am able to accept the thoughts and feelings I have.",
          "value": "",
          "validators": {
            "type": "validator-types",
            "values": [
              {
                "type": "required"
              }
            ]
          },
          "options": [
            {
              "key": "1",
              "label": "Rarely/Notat all"
            },
            {
              "key": "2",
              "label": "Sometimes"
            },
            {
              "key": "3",
              "label": "Often"
            },
            {
              "key": "4",
              "label": "Almost"
            }
          ],
          "chipList": {
            "type": "chip",
            "stacked": true,
            "values": [
              {
                "name": "Beginner",
                "color": "primary"
              },
              {
                "name": "Activity",
                "color": "warn"
              }
            ]
          }
        },
        {
          "order": 9,
          "type": "radio",
          "name": "question9",
          "label": "I am able to focus on the present moment.",
          "value": "",
          "validators": {
            "type": "validator-types",
            "values": [
              {
                "type": "required"
              }
            ]
          },
          "options": [
            {
              "key": "1",
              "label": "Rarely/Notat all"
            },
            {
              "key": "2",
              "label": "Sometimes"
            },
            {
              "key": "3",
              "label": "Often"
            },
            {
              "key": "4",
              "label": "Almost"
            }
          ],
          "chipList": {
            "type": "chip",
            "stacked": true,
            "values": [
              {
                "name": "Beginner",
                "color": "primary"
              },
              {
                "name": "Activity",
                "color": "warn"
              }
            ]
          }
        },
        {
          "order": 10,
          "type": "radio",
          "name": "question10",
          "label": "I am able to pay close attention to one thing for a long.",
          "value": "",
          "validators": {
            "type": "validator-types",
            "values": [
              {
                "type": "required"
              }
            ]
          },
          "options": [
            {
              "key": "1",
              "label": "Rarely/Notat all"
            },
            {
              "key": "2",
              "label": "Sometimes"
            },
            {
              "key": "3",
              "label": "Often"
            },
            {
              "key": "4",
              "label": "Almost"
            }
          ],
          "chipList": {
            "type": "chip",
            "stacked": true,
            "values": [
              {
                "name": "Beginner",
                "color": "primary"
              },
              {
                "name": "Activity",
                "color": "warn"
              }
            ]
          }
        }
      ]
    }
  }
}
